R for Non-Programmers: A Guide for Social Scientists - 7 Data Wrangling
…
An important advantage of this approach is the ability to load large data files much more quickly. The previous options offer a preview of your data, but loading this preview can take a long time for large datasets. Therefore, I highly recommend using the readr functions directly in the console or your R script to avoid frustration when importing large datasets.

There is a lot more to readr than could be covered in this book. If you want to know more about this R package, I highly recommend looking at the readr webpage.

7.2 Inspecting your data

For the rest of this chapter, we will use the World Value Survery data (Haerpfer et al. 2022) (wvs) from the r4np package. However, we do not know much about this dataset, and therefore we cannot ask any research questions worth investigating. Therefore, we need to look at what it contains. The first method of inspecting a dataset is to type the name of the object, i.e. wvs.

# Ensure you loaded the 'r4np' package first
library(r4np)

# Show the data in the console
wvs

# A tibble: 8,564 × 7
   `Participant ID` `Country name`              Gender   Age relationship_status
              <dbl> <chr>                        <dbl> <dbl> <chr>              
 1         68070001 Bolivia, Plurinational Sta…      0    60 married            
 2         68070002 Bolivia, Plurinational Sta…      0    40 married            
 3         68070003 Bolivia, Plurinational Sta…      0    25 single             
 4         68070004 Bolivia, Plurinational Sta…      1    71 widowed            
 5         68070005 Bolivia, Plurinational Sta…      1    38 married            
 6         68070006 Bolivia, Plurinational Sta…      1    20 separated          
 7         68070007 Bolivia, Plurinational Sta…      0    39 single             
 8         68070008 Bolivia, Plurinational Sta…      1    19 single             
 9         68070009 Bolivia, Plurinational Sta…      0    20 single             
10         68070010 Bolivia, Plurinational Sta…      1    37 married            
# ℹ 8,554 more rows
# ℹ 2 more variables: Freedom.of.Choice <dbl>, `Satisfaction-with-life` <dbl>
…
Rows: 8,564
Columns: 7
$ participant_id      <chr> "68070001", "68070002", "68070003", "68070004", "6…
$ country             <fct> "Bolivia, Plurinational State of", "Bolivia, Pluri…
$ gender              <fct> 0, 0, 0, 1, 1, 1, 0, 1, 0, 1, 1, 1, 1, 0, 1, 1, 1,…
$ age                 <chr> "60", "40", "25", "71", "38", "20", "39", "19", "2…
$ relationship_status <fct> married, married, single, widowed, married, separa…
$ freedom_of_choice   <dbl> 7, 8, 10, 5, 5, 5, 5, 10, 6, 9, 5, 8, 8, 7, 5, 10,…
$ satisfaction        <dbl> 5, 7, 8, 5, 7, 3, 3, 8, 7, 8, 9, 6, 7, 7, 4, 8, 5,…

# Conversion to numeric values
converted_data |>
  mutate(age = as.numeric(age))

# A tibble: 8,564 × 7
   participant_id country     gender   age relationship_status freedom_of_choice
   <chr>          <fct>       <fct>  <dbl> <fct>                           <dbl>
 1 68070001       Bolivia, P… 0         60 married                             7
 2 68070002       Bolivia, P… 0         40 married                             8
 3 68070003       Bolivia, P… 0         25 single                             10
 4 68070004       Bolivia, P… 1         71 widowed                             5
 5 68070005       Bolivia, P… 1         38 married                             5
 6 68070006       Bolivia, P… 1         20 separated                           5
 7 68070007       Bolivia, P… 0         39 single                              5
 8 68070008       Bolivia, P… 1         19 single                             10
 9 68070009       Bolivia, P… 0         20 single                              6
10 68070010       Bolivia, P… 1         37 married                             9
# ℹ 8,554 more rows
# ℹ 1 more variable: satisfaction <dbl>
…
dinner_time |> mutate(time_new = hms(time))

# A tibble: 4 × 2
  time         time_new   
  <chr>        <Period>   
1 17:34:21     17H 34M 21S
2 17:::34:21   17H 34M 21S
3 17 34 21     17H 34M 21S
4 17 : 34 : 21 17H 34M 21S

Lastly, dttm data types combine both: date and time. To illustrate how we can work with this format we can look at some actual data from a questionnaire. For example, the `quest_time` dataset has information about questionnaire completion dates and times..

quest_time

# A tibble: 84 × 3
      id start            end             
   <dbl> <chr>            <chr>           
 1     1 12/05/2016 20:46 12/05/2016 20:49
 2     2 19/05/2016 22:08 19/05/2016 22:25
 3     3 20/05/2016 07:05 20/05/2016 07:14
 4     4 13/05/2016 08:59 13/05/2016 09:05
 5     5 13/05/2016 11:25 13/05/2016 11:29
 6     6 13/05/2016 11:31 13/05/2016 11:37
 7     7 20/05/2016 11:29 20/05/2016 11:45
 8     8 20/05/2016 14:07 20/05/2016 14:21
 9     9 20/05/2016 14:55 20/05/2016 15:01
10    10 20/05/2016 16:12 20/05/2016 16:25
# ℹ 74 more rows

While it all looks neat and tidy, keeping dates and times as a chr is not ideal, especially if we want to use it to conduct further analysis. Therefore, it would be important to transform these variables into the appropriate dttm format. We can use the function dmy_hm() similar to previous functions we used.

quest_time_clean <-
  quest_time |>
  mutate(start = dmy_hm(start),
         end = dmy_hm(end)
         )

quest_time_clean

# A tibble: 84 × 3
      id start               end                
   <dbl> <dttm>              <dttm>             
 1     1 2016-05-12 20:46:00 2016-05-12 20:49:00
 2     2 2016-05-19 22:08:00 2016-05-19 22:25:00
 3     3 2016-05-20 07:05:00 2016-05-20 07:14:00
 4     4 2016-05-13 08:59:00 2016-05-13 09:05:00
 5     5 2016-05-13 11:25:00 2016-05-13 11:29:00
 6     6 2016-05-13 11:31:00 2016-05-13 11:37:00
 7     7 2016-05-20 11:29:00 2016-05-20 11:45:00
 8     8 2016-05-20 14:07:00 2016-05-20 14:21:00
 9     9 2016-05-20 14:55:00 2016-05-20 15:01:00
10    10 2016-05-20 16:12:00 2016-05-20 16:25:00
# ℹ 74 more rows
While the difference between this format and the previous one is relatively marginal and unimpressive, the main benefit of this conversation becomes apparent when we perform operations on these variables, e.g. computing the time it took participants to complete the questionnaire.

7.6.2 Computing durations with dates, times and date-time variables

Once we have ‘corrected’ our variables to show as dates, times and date-times, we can perform further analysis and ask important questions about durations, periods and intervals of observations.

Let’s consider the quest_time dataset which we just prepared. As mentioned earlier, it is often essential to understand how long it took participants to complete a given questionnaire. Therefore we would want to compute the duration based on the start and end time.

df_duration <-
  quest_time_clean |>
  mutate(duration = end - start)

df_duration

# A tibble: 84 × 4
      id start               end                 duration
   <dbl> <dttm>              <dttm>              <drtn>  
 1     1 2016-05-12 20:46:00 2016-05-12 20:49:00  3 mins 
 2     2 2016-05-19 22:08:00 2016-05-19 22:25:00 17 mins 
 3     3 2016-05-20 07:05:00 2016-05-20 07:14:00  9 mins 
 4     4 2016-05-13 08:59:00 2016-05-13 09:05:00  6 mins 
 5     5 2016-05-13 11:25:00 2016-05-13 11:29:00  4 mins 
 6     6 2016-05-13 11:31:00 2016-05-13 11:37:00  6 mins 
 7     7 2016-05-20 11:29:00 2016-05-20 11:45:00 16 mins 
 8     8 2016-05-20 14:07:00 2016-05-20 14:21:00 14 mins 
 9     9 2016-05-20 14:55:00 2016-05-20 15:01:00  6 mins 
10    10 2016-05-20 16:12:00 2016-05-20 16:25:00 13 mins 
# ℹ 74 more rows
…
# A tibble: 3 × 2
  name  value     
  <chr> <lvn.vctr>
1 cfi   0.967     
2 rmsea 0.081     
3 srmr  0.037     

The enframe() function is useful to turn a named vector (i.e. a named sequence of values) into a tibble, which we can further manipulate using the functions we already know. However, it is not required to take this step to inspect the results. This can be done out of pure convenience. If we want to know where name and value came from we have to inspect the output from enframe(fit_indices).

enframe(fit_indices)

# A tibble: 46 × 2
   name            value       
   <chr>           <lvn.vctr>  
 1 npar            2.100000e+01
 2 fmin            1.177732e-01
 3 chisq           7.066390e+01
 4 df              2.400000e+01
 5 pvalue          1.733810e-06
 6 baseline.chisq  1.429729e+03
 7 baseline.df     3.600000e+01
 8 baseline.pvalue 0.000000e+00
 9 cfi             9.665187e-01
10 tli             9.497780e-01
# ℹ 36 more rows
…
