R for Non-Programmers: A Guide for Social Scientists - 8 Descriptive Statistics
…
Our plot is almost perfect, but we should take one more step to make reading and understanding this plot even easier. At the moment, the bars are ordered randomly. Unfortunately, this is hardly ever a useful way to order your data. Instead, we might want to sort the data by frequency, showing the largest bar at the top. To achieve this, we could either sort the countries by hand (see Section 7.5.2) or slightly amend what we have coded so far.

The problem you encounter when rearranging a geom_bar() with only one variable is that we do not have an explicit value to indicate how we want to sort the bars. Our current code is based on the fact that ggplot does the counting for us. So, instead, we need to do two things:

create a table with all countries and their frequency, and

use this table to plot the countries by the frequency we computed

# Step 1: The frequency table only
eqls_2011 |> count(country_name)

# A tibble: 32 × 2
   country_name       n
   <fct>          <int>
 1 Austria         1032
 2 Belgium         1013
 3 Bulgaria        1000
 4 Cyprus          1006
 5 Czech Republic  1012
 6 Germany         3055
 7 Denmark         1024
 8 Estonia         1002
 9 Greece          1004
10 Spain           1512
# ℹ 22 more rows
…
In many cases, when creating plots, you have to perform two steps:

generate the statistics you want to plot, e.g. a frequency table, and

plot the data via ggplot()

Now you have learned the fundamentals of plotting in R. We will create a lot more plots throughout the next chapters. They all share the same basic structure, but we will use different geom_s to describe our data. By the end of this book, you will have accrued enough experience in plotting in R that it will feel like second nature. If you want to deepen your knowledge of ggplot, you should take a look at the book ‘ggplot: Elegant Graphics for Data Analysis’ or ‘R Graphics Cookbook’ which moves beyond ggplot2. Apart from that, you can also find fantastic packages which extend the range of ‘geoms’ you can use in the ‘ggplot2 extensions gallery’.

8.2 Frequencies and relative frequencies: Counting categorical variables

One of the most fundamental descriptive statistics includes frequencies, i.e. counting the number of occurrences of a factor level, string or numeric value. We already used the required function to compute such a frequency when we looked at the representation of countries in the eqls_2011 dataset (see Section 8.1), i.e. count().

eqls_2011 |> count(country_name)

# A tibble: 32 × 2
   country_name       n
   <fct>          <int>
 1 Austria         1032
 2 Belgium         1013
 3 Bulgaria        1000
 4 Cyprus          1006
 5 Czech Republic  1012
 6 Germany         3055
 7 Denmark         1024
 8 Estonia         1002
 9 Greece          1004
10 Spain           1512
# ℹ 22 more rows
…
# A tibble: 2 × 2
  group   sum
  <fct> <dbl>
1 A         9
2 B         6

Considering the results from our country plot, it appears as if Finland and Denmark are far ahead of the rest. On average, both countries score around 7/10 with regards to being able to trust other people in their country. We can retrieve the exact means by removing the plot from the above code.

eqls_2011 |>
  group_by(country_name) |>
  summarise(mean_trust = mean(trust_people, na.rm = TRUE)) |>
  arrange(desc(mean_trust))

# A tibble: 32 × 2
   country_name   mean_trust
   <fct>               <dbl>
 1 Finland              7.17
 2 Denmark              7.01
 3 Sweden               6.41
 4 Iceland              6.33
 5 Luxembourg           5.92
 6 Ireland              5.54
 7 United Kingdom       5.50
 8 Belgium              5.47
 9 Spain                5.41
10 France               5.32
# ℹ 22 more rows
…
