R for Non-Programmers: A Guide for Social Scientists - 9 Sources of bias: Sampling, outliers, normality and other ‘conundrums’
…
Given that the median of happiness for this dataset is 7.47, we can postulate that Colchester and Redditch are places in England that score considerably below the majority of the rest. However, places like Torridge and Lichfield can be considered particularly happy places in England. This list of areas in England represents to the answer to our question at the beginning of this section.

From here, it is simple to remove these areas in England (i.e. keep the areas that are not outliers) or set their values to NA. If we replace() the values with NA, we can continue with one of the techniques demonstrated for missing values in Section 7.7. Both approaches are shown in the following code chunk.

# Keep all observations but outliers
hie_2021_outliers |>
  filter(outlier == "FALSE") |>
  select(area_name, outlier)

# Replace values with NA
hie_2021_outliers |>
  mutate(happiness = replace(happiness, outlier == "TRUE", NA)) |>
  select(area_name, happiness)

# A tibble: 307 × 2
   area_name                   happiness
   <fct>                           <dbl>
 1 Hartlepool                       7.54
 2 Middlesbrough                    7.41
 3 Redcar and Cleveland             7.46
 4 Stockton-on-Tees                 7.23
 5 Darlington                       7.35
 6 Halton                           7.36
 7 Warrington                       7.38
 8 Blackburn with Darwen            7.36
 9 Blackpool                        7.43
10 Kingston upon Hull, City of      7.38
# ℹ 297 more rows
…
