R for Non-Programmers: A Guide for Social Scientists - 11 Comparing groups
…
This contingency table reflects the mosaic plot we created, but it does not show paired answers. If we sum the frequencies in each cell, we receive a score of 96, which equals the number of observations in ic_training. However, since we have two observations per person (i.e. paired responses), we only have 48 participants. Thus, this frequency table treats the pre and post-training group as independent from each other, which is obviously incorrect.

The current dataset includes two rows for each participant. Therefore, if we want to create a contingency table with paired scores, we first need to convert our data so that each participant is reflected by one row only, i.e. we need to make our data frame wider with pivot_wider().

# Creating data frame reflecting paired responses
paired_data <-
  ic_training |>
  pivot_wider(id_cols = name,
              names_from = test,
              values_from = communication2)

paired_data

# A tibble: 48 × 3
   name                       pre_training post_training
   <chr>                      <fct>        <fct>        
 1 Hamlin, Christiana         no           no           
 2 Horblit, Timothy           no           yes          
 3 Grady, Justin              no           yes          
 4 Grossetete-Alfaro, Giovana no           yes          
 5 Dingae, Lori               no           yes          
 6 el-Sabir, Saamyya          no           yes          
 7 Reynolds, Tylor            no           yes          
 8 Aslami, Andrew             no           yes          
 9 Alexander, Kiri            no           yes          
10 Guzman Pineda, Timothy     no           yes          
# ℹ 38 more rows
…
