R for Non-Programmers - 13 Regression: Creating models to predict future observations
…
Et voilà. We now counted the number of times an observation was detected considering both measures. This is scalable to more than two measures. Thus, we can apply it to our data as well.

outliers_true <-
  outliers |>
  pivot_longer(!rowname,
               names_to = "measure",
               values_to = "is.outlier") |>
  count(rowname, is.outlier) |>
  filter(is.outlier == "TRUE")

outliers_true

# A tibble: 85 × 3
   rowname is.outlier     n
   <fct>   <lgl>      <int>
 1 224     TRUE           2
 2 225     TRUE           2
 3 226     TRUE           2
 4 227     TRUE           2
 5 344     TRUE           1
 6 345     TRUE           1
 7 346     TRUE           1
 8 349     TRUE           1
 9 350     TRUE           1
10 351     TRUE           1
# ℹ 75 more rows
…
For now, I settle on removing outliers entirely. The easiest way to remove these outliers is to combine our outliers dataset with our regression (m1_outliers). Now you will notice that having rowname as an ID allows us to match the values of each table to each other. Otherwise, this would not be possible.

# Include outliers which were detected by multiple methods
outliers_select <-
  outliers_true |>
  filter(n > 1)

# Keep only columns which are NOT included in outliers_select
m1_no_outliers <- anti_join(m1_outliers, outliers_select,
                            by = "rowname")

m1_no_outliers

# A tibble: 1,152 × 13
   rowname new_cases movements schools businesses travel    .hat
   <chr>       <dbl>     <dbl>   <dbl>      <dbl>  <dbl>   <dbl>
 1 1               0         0       0          0      0 0.00516
 2 2               0         0       0          0      0 0.00516
 3 3               0         0       0          0      0 0.00516
 4 4               0         0       0          0      0 0.00516
 5 5               0         0       0          0      0 0.00516
 6 6               0         0       0          0      0 0.00516
 7 7               0         0       0          0      0 0.00516
 8 8               0         0       0          0      0 0.00516
 9 9               0         0       0          0      0 0.00516
10 10              0         0       0          0      0 0.00516
# ℹ 1,142 more rows
# ℹ 6 more variables: .sigma <dbl>, .cooksd <dbl>, .fitted <dbl>,
#   .resid <dbl>, .stdresid <dbl>, .studresid <dbl>
…
