R for Non-Programmers: A Guide for Social Scientists - 14 Mixed-methods research: Analysing qualitative data in R
…
Once we have converted our data into a data frame, all the techniques we covered for non-quantitative variables can be applied. It only requires a single function to turn ourselves into novice corpus analysts. If this sounds too easy, then you are right. Hardly ever will we retrieve a tidy dataset that allows us to work with it in the way we just did. Data cleaning and wrangling still need to be performed but in a slightly different way. Besides, there are many other ways to tokenize text than using individual words, some of which we cover in this chapter.

14.2 Stop words: Removing noise in the data

In the previous example, we already performed an important data wrangling process, i.e. tokenization. However, besides changing the text format, we also need to take care of other components in our data that are usually not important, for example, removing ‘stop words’. To showcase this step (and a little more), I will draw on the comments dataset, which holds data about students’ study experiences.

In my industry, i.e. Higher Education, understanding students’ study experiences is crucial for improving academic programmes and support services. The insights gathered from student feedback can significantly influence how a university enhances its offerings. With the help of the comments dataset, we can empirically investigate what themes emerge from students comments about their social inclusion experiences. However, we first have to tidy the data and then clean it. An essential step in this process is the removal of ‘stop words’.

‘Stop words’ are words that we want to exclude from our analysis, because they carry no particular meaning. The tidytext package comes with a data frame that contains common stop words in English.

stop_words

# A tibble: 1,149 × 2
   word        lexicon
   <chr>       <chr>  
 1 a           SMART  
 2 a's         SMART  
 3 able        SMART  
 4 about       SMART  
 5 above       SMART  
 6 according   SMART  
 7 accordingly SMART  
 8 across      SMART  
 9 actually    SMART  
10 after       SMART  
# ℹ 1,139 more rows

It is important to acknowledge that there is no unified standard of what constitutes a stop word. The data frame stop_words covers many words, but in your research context, you might not even want to remove them. For example, if we aim to identify topics in a text, stop words would be equivalent to white noise, i.e. many of them are of no help to identify relevant topics. Instead, stop words would confound our analysis. For obvious reasons, stop words highly depend on the language of your data. Thus, what works for English will not work for German, Russian or Chinese. You will need a separate set of stop words for each language.

The removal of stop words can be achieved with a function we already know: anti-join(). In other words, we want to subtract all words from stop_words from a given text. Let’s begin with the tokenization of our comments.

comments_token <-
  comments |>
  unnest_tokens(word, comment) |>
  select(word, social_inclusion)

comments_token

# A tibble: 3,299 × 2
   word          social_inclusion
   <chr>                    <dbl>
 1 joining                      8
 2 the                          8
 3 international                8
 4 club                         8
 5 was                          8
 6 a                            8
 7 game                         8
 8 changer                      8
 9 i                            8
10 made                         8
# ℹ 3,289 more rows
…
The result is somewhat disappointing. None of these words carries any particular meaning because they are all stop words, except for group. Thus, we must clean our data before conducting such an analysis.

I also sneaked in a new function called fct_lump_n() from the forcats package. It creates a new factor level called other words and ‘lumps’ together all the other factor levels. You likely have seen plots before which show a category called ‘Other’. We usually apply this approach if we have many factor levels with very low frequencies. It would not be meaningful to plot 50 words as a barplot which only occurred once in our data. They are less important. Thus, it is sometimes meaningful to pool factor levels together. The function fct_lump_n(word, 5) returns the five most frequently occurring words and pools the other words together into a new category. There are many different ways to ‘lump’ factors. For a detailed explanation and showcase of all available alternatives, have a look at the forcats website.

In our next step, we have to remove stop words using the stop_words data frame and apply the function anti_join().

comments_no_sw <- anti_join(comments_token, stop_words,
                          by = "word")

comments_no_sw

# A tibble: 1,510 × 2
   word          social_inclusion
   <chr>                    <dbl>
 1 joining                      8
 2 international                8
 3 club                         8
 4 game                         8
 5 changer                      8
 6 friends                      8
 7 world                        8
 8 studying                     8
 9 campus                      10
10 diversity                   10
# ℹ 1,500 more rows
…
Then, we group our data based on social_inclusion.

We select the top 5 most frequently occurring words for each group.

comments_grouped <-
  comments_no_sw |>
  count(social_inclusion, word) |>
  group_by(social_inclusion) |>
  slice_max(n, n = 5) |>
  ungroup() |>
  arrange(desc(social_inclusion))

comments_grouped

# A tibble: 58 × 3
   social_inclusion word            n
              <dbl> <chr>       <int>
 1               10 friendships     7
 2               10 feel            5
 3               10 friends         5
 4               10 diversity       3
 5               10 times           3
 6                8 friends        14
 7                8 friendships    14
 8                8 study           6
 9                8 classmates      5
10                8 love            5
# ℹ 48 more rows
…
Merge columns word1 and word2 into one column again, i.e. unite() them. (optional)

Count the frequency of bigrams, i.e. count().

There are a lot of new functions covered in this part. However, by now, you likely understand how they function already. Let’s proceed step-by-step. For this final example about mixed-methods research, we will look at the comment variable in the comments dataset. Since we already have the text as a data frame, we can skip step one. Next, we need to engage in tokenization. While we use the same function as before, we need to provide different arguments to retrieve bigrams. As before, we need to define an output column and an input column. In addition, we also have to provide the correct type of tokenization, i.e. determine token, which we need to set to "ngrams". We also need to define the n in ‘ngrams’, which will be 2 for bigrams. After this, we apply count() to our variable bigram, and we achieved our task. If we turn this into R code, we get the following (with considerably less characters than its explanation):

# Create bigrams from variable synopsis
comments_bigram <-
  comments |>
  unnest_tokens(bigram, comment, token = "ngrams", n = 2)

comments_bigram

# A tibble: 3,090 × 2
   social_inclusion bigram            
              <dbl> <chr>             
 1                8 joining the       
 2                8 the international 
 3                8 international club
 4                8 club was          
 5                8 was a             
 6                8 a game            
 7                8 game changer      
 8                8 changer i         
 9                8 i made            
10                8 made friends      
# ℹ 3,080 more rows

# Inspect frequency of bigrams
comments_bigram |> count(bigram, sort = TRUE)

# A tibble: 2,098 × 2
   bigram             n
   <chr>          <int>
 1 can be            19
 2 i appreciate      18
 3 i often           18
 4 group work        16
 5 sense of          16
 6 group projects    14
 7 i enjoy           14
 8 but i             13
 9 i love            13
10 i sometimes       13
# ℹ 2,088 more rows

As before, the most frequent bigrams are those that contain stop words. Thus, we need to clean our data and remove them. This time, though, we face the challenge that the variable bigram has two words and not one. Thus, we cannot simply use anti_join() because the dataset stop_words only contains individual words, not pairs. To remove stop words successfully, we have to separate() the variable into two variables so that each word has its own column. The package tidyr makes this is an effortless task.

bigram_split <-
  comments_bigram |>
  separate(col = bigram,
           into = c("word1", "word2"),
           sep = " ")

bigram_split

# A tibble: 3,090 × 3
   social_inclusion word1         word2        
              <dbl> <chr>         <chr>        
 1                8 joining       the          
 2                8 the           international
 3                8 international club         
 4                8 club          was          
 5                8 was           a            
 6                8 a             game         
 7                8 game          changer      
 8                8 changer       i            
 9                8 i             made         
10                8 made          friends      
# ℹ 3,080 more rows
…
While this might be a nice little exercise, it is important to understand how %in% can help us remove stop words. Technically, we try to achieve the opposite, i.e. we want to keep the values in word1 and word2 that are not a word in stop_words. If we use the language of dplyr, we filter() based on whether a word in bigram_split is not %in% the data frame stop_words. Be aware that %in% requires a variable and not an entire data frame to work as we intend.

bigram_cleaned <-
  bigram_split |>
  filter(!word1 %in% stop_words$word) |>
  filter(!word2 %in% stop_words$word)

bigram_cleaned <- bigram_cleaned |>
  count(word1, word2, sort = TRUE)

bigram_cleaned

# A tibble: 420 × 3
   word1    word2           n
   <chr>    <chr>       <int>
 1 cultural events          8
 2 study    sessions        8
 3 lasting  friendships     7
 4 late     night           5
 5 night    study           5
 6 campus   life            4
 7 leave    feeling         4
 8 campus   events          3
 9 deeper   connections     3
10 feel     grateful        3
# ℹ 410 more rows

The result is a clean dataset, which reveals that cultural and events are the most common bigram together with study and session in the comments dataset. Clearly, students spend a lot of time at social events or in study groups. Thus, when they talk about their experiences, these could be considered common places where they have them.

Sometimes we might wish to re-unite() the two columns that we separated. For example, when plotting the results into a ggplot(), we need both words in one column1 to use the actual bigrams as labels.

bigram_cleaned |>
  unite(col = bigram,
        word1, word2,
        sep = " ")

# A tibble: 420 × 2
   bigram                  n
   <chr>               <int>
 1 cultural events         8
 2 study sessions          8
 3 lasting friendships     7
 4 late night              5
 5 night study             5
 6 campus life             4
 7 leave feeling           4
 8 campus events           3
 9 deeper connections      3
10 feel grateful           3
# ℹ 410 more rows
…
