R for Non-Programmers: A Guide for Social Scientists - 8 Descriptive Statistics
…
In many cases, when creating plots, you have to perform two steps:

generate the statistics you want to plot, e.g. a frequency table, and

plot the data via ggplot()

Now you have learned the fundamentals of plotting in R. We will create a lot more plots throughout the next chapters. They all share the same basic structure, but we will use different geom_s to describe our data. By the end of this book, you will have accrued enough experience in plotting in R that it will feel like second nature. If you want to deepen your knowledge of ggplot, you should take a look at the book ‘ggplot: Elegant Graphics for Data Analysis’ or ‘R Graphics Cookbook’ which moves beyond ggplot2. Apart from that, you can also find fantastic packages which extend the range of ‘geoms’ you can use in the ‘ggplot2 extensions gallery’.

8.2 Frequencies and relative frequencies: Counting categorical variables

One of the most fundamental descriptive statistics includes frequencies, i.e. counting the number of occurrences of a factor level, string or numeric value. For example, we might be interested to know which director produced most movies listed in the IMDb Top 250. Therefore multiple movies might belong to the same value in our factor director. We already used the required function to compute such a frequency when we looked at movie genres (see Chapter @ref(plotting-in-r-with-ggplot2)), i.e. count().

imdb_top_250 |> count(director)

# A tibble: 155 × 2
   director                  n
   <fct>                 <int>
 1 Aamir Khan                1
 2 Adam Elliot               1
 3 Akira Kurosawa            6
 4 Alejandro G. Inarritu     1
 5 Alfred Hitchcock          6
 6 Andrei Tarkovsky          2
 7 Andrew Stanton            2
 8 Anthony Russo             2
 9 Anurag Kashyap            1
10 Asghar Farhadi            1
# ℹ 145 more rows
…
