R for Non-Programmers: A Guide for Social Scientists - 9 Sources of bias: Outliers, normality and other ‘conundrums’
…
The list of movies contains some of the most iconic Hollywood films ever shown on screen. However, I think we can agree that most of them are truly outside the norm of regular movies, not just in terms of runtime.

From here, it is simple to remove these movies (i.e. keep the movies that are not outliers) or set their values to NA. If we replace() the values with NA, we can continue with one of the techniques demonstrated for missing values in Chapter @ref(dealing-with-missing-data). Both approaches are shown in the following code chunk.

# Keep all observations but outliers
imdb_top_250 |>
  filter(outlier == "FALSE") |>
  select(title, outlier)

# Replace values with NA
imdb_top_250 |>
  mutate(runtime_min = replace(runtime_min, outlier == "TRUE", NA)) |>
  select(title, runtime_min)

# A tibble: 250 × 2
   title                                         runtime_min
   <chr>                                               <dbl>
 1 The Shawshank Redemption                              142
 2 The Godfather                                         175
 3 The Dark Knight                                       152
 4 The Godfather: Part II                                202
 5 12 Angry Men                                           96
 6 The Lord of the Rings: The Return of the King         201
 7 Pulp Fiction                                          154
 8 Schindler's List                                      195
 9 Inception                                             148
10 Fight Club                                            139
# ℹ 240 more rows
…
