R for Non-Programmers: A Guide for Social Scientists - 14 Mixed-methods research: Analysing qualitative data in R
…
Once we have converted our data into a data frame, all the techniques we covered for non-quantitative variables can be applied. It only requires a single function to turn ourselves into novice corpus analysts. If this sounds too easy, then you are right. Hardly ever will we retrieve a tidy dataset that allows us to work with it in the way we just did. Data cleaning and wrangling still need to be performed but in a slightly different way. Besides, there are many other ways to tokenize text than using individual words, some of which we cover in this chapter.

14.2 Stop words: Removing noise in the data

In the previous example, we already performed an important data wrangling process, i.e. tokenization. However, besides changing the text format, we also need to take care of other components in our data that are usually not important, for example, removing ‘stop words’. To showcase this step (and a little more), I will draw on the imdb_top_250 dataset.

In marketing, finding the right product name is a laborious task and requires careful attention. After all, our first impression of a product is partially informed by its name. Consequently, when promoting a movie, one might wonder whether more popular words in movie titles can lead to greater success, i.e. a higher ranking on IMDb. With the help of the imdb_top_250 dataset, we can empirically investigate this matter. However, we first have to tidy the data and then clean it. An essential step in this process is the removal of ‘stop words’.

‘Stop words’ are words that we want to exclude from our analysis, because they carry no particular meaning. The tidytext package comes with a data frame that contains common stop words in English.

stop_words

# A tibble: 1,149 × 2
   word        lexicon
   <chr>       <chr>  
 1 a           SMART  
 2 a's         SMART  
 3 able        SMART  
 4 about       SMART  
 5 above       SMART  
 6 according   SMART  
 7 accordingly SMART  
 8 across      SMART  
 9 actually    SMART  
10 after       SMART  
# ℹ 1,139 more rows

It is important to acknowledge that there is no unified standard of what constitutes a stop word. The data frame stop_words covers many words, but in your research context, you might not even want to remove them. For example, if we aim to identify topics in a text, stop words would be equivalent to white noise, i.e. many of them are of no help to identify relevant topics. Instead, stop words would confound our analysis. For obvious reasons, stop words highly depend on the language of your data. Thus, what works for English will not work for German, Russian or Chinese. You will need a separate set of stop words for each language.

The removal of stop words can be achieved with a function we already know: anti-join(). In other words, we want to subtract all words from stop_words from a given text. Let’s begin with the tokenization of our movie titles.

titles <-
  imdb_top_250 |>
  unnest_tokens(word, title) |>
  select(imdb_rating, word)

titles

# A tibble: 712 × 2
   imdb_rating word      
         <dbl> <chr>     
 1         9.3 the       
 2         9.3 shawshank 
 3         9.3 redemption
 4         9.2 the       
 5         9.2 godfather 
 6         9   the       
 7         9   dark      
 8         9   knight    
 9         9   the       
10         9   godfather 
# ℹ 702 more rows
…
The result is somewhat disappointing. None of these words carries any particular meaning because they are all stop words. Thus, we must clean our data before conducting such an analysis.

I also sneaked in a new function called fct_lump_n() from the forcats package. It creates a new factor level called other words and ‘lumps’ together all the other factor levels. You likely have seen plots before which show a category called ‘Other’. We usually apply this approach if we have many factor levels with very low frequencies. It would not be meaningful to plot 50 words as a barplot which only occurred once in our data. They are less important. Thus, it is sometimes meaningful to pool factor levels together. The function fct_lump_n(word, 5) returns the five most frequently occurring words and pools the other words together into a new category. There are many different ways to ‘lump’ factors. For a detailed explanation and showcase of all available alternatives, have a look at the forcats website.

In our next step, we have to remove stop words using the stop_words data frame and apply the function anti_join().

titles_no_sw <- anti_join(titles, stop_words,
                          by = "word")

titles_no_sw

# A tibble: 443 × 2
   imdb_rating word      
         <dbl> <chr>     
 1         9.3 shawshank 
 2         9.3 redemption
 3         9.2 godfather 
 4         9   dark      
 5         9   knight    
 6         9   godfather 
 7         9   ii        
 8         9   12        
 9         9   angry     
10         8.9 lord      
# ℹ 433 more rows
…
After preparing and visualising our data, it is time to perform our analysis. We want to know whether certain words are associated with higher imdb_ratings. If we use the function count() we will lose the variable imdb_rating(). Thus, we have to do this in three steps:

We create the frequencies for each word with count(), which we already did.

Then, we left_join() the word frequencies with the original dataset to add the word frequencies.

Compute a correlation using correlation() from the correlation package.

# Combine word_frequencies with titles_no_sw
titles_no_sw <- left_join(titles_no_sw, word_frequencies,
                          by = "word")

titles_no_sw

# A tibble: 443 × 3
   imdb_rating word           n
         <dbl> <chr>      <int>
 1         9.3 shawshank      1
 2         9.3 redemption     1
 3         9.2 godfather      2
 4         9   dark           2
 5         9   knight         2
 6         9   godfather      2
 7         9   ii             1
 8         9   12             2
 9         9   angry          1
10         8.9 lord           3
# ℹ 433 more rows
…
Merge columns word1 and word2 into one column again, i.e. unite() them. (optional)

Count the frequency of bigrams, i.e. count().

There are a lot of new functions covered in this part. However, by now, you likely understand how they function already. Let’s proceed step-by-step. For this final example about mixed-methods research, we will look at the synopsis of movies provided by IMDb. Since we already have the text in our data frame, we can skip step one. Next, we need to engage in tokenization. While we use the same function as before, we need to provide different arguments to retrieve bigrams. As before, we need to define an output column and an input column. In addition, we also have to provide the correct type of tokenization, i.e. determine token, which we need to set to "ngrams". We also need to define the n in ‘ngrams’, which will be 2 for bigrams. After this, we apply count() to our variable bigram, and we achieved our task. If we turn this into R code, we get the following (with considerably less characters than its explanation):

# Create bigrams from variable synopsis
synopsis <-
  imdb_top_250 |>
  unnest_tokens(bigram, synopsis, token = "ngrams", n = 2) |>
  select(bigram)

synopsis

# A tibble: 6,094 × 1
   bigram        
   <chr>         
 1 two imprisoned
 2 imprisoned men
 3 men bond      
 4 bond over     
 5 over a        
 6 a number      
 7 number of     
 8 of years      
 9 years finding 
10 finding solace
# ℹ 6,084 more rows

# Inspect frequency of bigrams
synopsis |> count(bigram, sort = TRUE)

# A tibble: 5,035 × 2
   bigram       n
   <chr>    <int>
 1 in the      31
 2 of the      27
 3 in a        25
 4 of a        25
 5 and his     18
 6 on a        17
 7 with the    17
 8 of his      16
 9 to find     15
10 a young     14
# ℹ 5,025 more rows

As before, the most frequent bigrams are those that contain stop words. Thus, we need to clean our data and remove them. This time, though, we face the challenge that the variable bigram has two words and not one. Thus, we cannot simply use anti_join() because the dataset stop_words only contains individual words, not pairs. To remove stop words successfully, we have to separate() the variable into two variables so that each word has its own column. The package tidyr makes this is an effortless task.

bigram_split <- synopsis |>
  separate(col = bigram,
           into = c("word1", "word2"),
           sep = " ")

bigram_split

# A tibble: 6,094 × 2
   word1      word2     
   <chr>      <chr>     
 1 two        imprisoned
 2 imprisoned men       
 3 men        bond      
 4 bond       over      
 5 over       a         
 6 a          number    
 7 number     of        
 8 of         years     
 9 years      finding   
10 finding    solace    
# ℹ 6,084 more rows
…
While this might be a nice little exercise, it is important to understand how %in% can help us remove stop words. Technically, we try to achieve the opposite, i.e. we want to keep the values in word1 and word2 that are not a word in stop_words. If we use the language of dplyr, we filter() based on whether a word in bigram_split is not %in% the data frame stop_words. Be aware that %in% requires a variable and not an entire data frame to work as we intend.

bigram_cleaned <-
  bigram_split |>
  filter(!word1 %in% stop_words$word) |>
  filter(!word2 %in% stop_words$word)

bigram_cleaned <- bigram_cleaned |>
  count(word1, word2, sort = TRUE)

bigram_cleaned

# A tibble: 1,246 × 3
   word1   word2        n
   <chr>   <chr>    <int>
 1 world   war          8
 2 war     ii           7
 3 darth   vader        3
 4 gotham  city         3
 5 serial  killer       3
 6 vietnam war          3
 7 york    city         3
 8 24      hours        2
 9 adolf   hitler's     2
10 army    officer      2
# ℹ 1,236 more rows

The result is a clean dataset, which reveals that world and war are the most common bigram in the synopsis of our Top 250 IMDb movies.

Sometimes we might wish to re-unite() the two columns that we separated. For example, when plotting the results into a ggplot(), we need both words in one column1 to use the actual bigrams as labels.

bigram_cleaned |>
  unite(col = bigram,
        word1, word2,
        sep = " ")

# A tibble: 1,246 × 2
   bigram             n
   <chr>          <int>
 1 world war          8
 2 war ii             7
 3 darth vader        3
 4 gotham city        3
 5 serial killer      3
 6 vietnam war        3
 7 york city          3
 8 24 hours           2
 9 adolf hitler's     2
10 army officer       2
# ℹ 1,236 more rows
…
